{ "pager": { "page": 1, "pageCount": 60, "total": 2954, "pageSize": 50, "nextPage": "http://dhis2-cd-hlt-prod.herokuapp.com/api/organisationUnits?page=2" }, "organisationUnits": [{ "level": 5, "name": "Alimbongo Hopital General de Reference", "id": "UwAKaY7V5kV" }, { "level": 5, "name": "Boboto Centre de Santé ", "id": "xw4YlEtpLi2" }, { "level": 5, "name": "Bompombo Centre de Santé", "id": "pqpXaJ85GWw" }, { "level": 5, "name": "Bulungu Hôpital de Général de Référence", "id": "soiiKbUYLHp" }, { "level": 5, "name": "CEBU Centre de Santé", "id": "Oh5KRzxWq37" }, { "level": 5, "name": "Dilolo Hopital General de Reference", "id": "IeeR9jj2SYo", "coordinates": "[22.3432339814888,-10.6926937504099]" }, { "level": 5, "name": "Djombo Hopital General de Reference", "id": "bMLKjKXPvY3" }, { "level": 5, "name": "Djuma Hopital General de Reference", "id": "T6Qq6wO60dS" }, { "level": 5, "name": "ECZ - Bongandanga", "id": "pfGstbZkUdW" }, { "level": 5, "name": "ECZS - Alimbongo", "id": "w0eXLf7jyc9" }, { "level": 5, "name": "ECZS - Bagata ", "id": "nGTOgWLPGEg" }, { "level": 5, "name": "ECZS - Bandundu ", "id": "tDWJHtM3TRj" }, { "level": 5, "name": "ECZS - Bangabola", "id": "MzYzddCRQS2" }, { "level": 5, "name": "ECZS - Basankusu", "id": "T0wM08ky9B3" }, { "level": 5, "name": "ECZS - Bikoro", "id": "V1nJG3cqSev" }, { "level": 5, "name": "ECZS - Bogosenubea", "id": "PXnPeJYsK6S" }, { "level": 5, "name": "ECZS Boko", "id": "rRcoSikdhPh" }, { "level": 5, "name": "ECZS - Bokonzi", "id": "wGHSmCVDbVh" }, { "level": 5, "name": "ECZS - Bokoro ", "id": "xWxMKPWn7oc" }, { "level": 5, "name": "ECZS - Bolenge", "id": "AYM6HYGyM7K" }, { "level": 5, "name": "ECZS - Bolobo ", "id": "BhunBgo0hjC" }, { "level": 5, "name": "ECZS - Bolomba", "id": "n3QYcAaD6ro" }, { "level": 5, "name": "ECZS - Bominenge", "id": "R6lhkhLLClk" }, { "level": 5, "name": "ECZS - Bomongo", "id": "MSkclb9V2Cd" }, { "level": 5, "name": "ECZS - Bosanga ", "id": "HSpyqKyhnKa" }, { "level": 5, "name": "ECZS - Bosobe ", "id": "oJmWPBIXkPA" }, { "level": 5, "name": "ECZS - Boto", "id": "eUY4TnBIdmM" }, { "level": 5, "name": "ECZS - Budjala", "id": "Lb6vIgQM8pi" }, { "level": 5, "name": "ECZS - Bukama", "id": "EXZt9CGwFUA" }, { "level": 5, "name": "ECZS - Bulu", "id": "kgqUC3KE3w7" }, { "level": 5, "name": "ECZS - Bulungu ", "id": "rhKGqvafEJV" }, { "level": 5, "name": "ECZS - Bunkeya", "id": "jJN5KgnuHsx" }, { "level": 5, "name": "ECZS - Butumba", "id": "FzgDC94ATLx" }, { "level": 5, "name": "ECZS - Bwamanda", "id": "A1xxadIweTw" }, { "level": 5, "name": "ECZS - Dilolo", "id": "hMQ45V1MEi4" }, { "level": 5, "name": "ECZS - Djombo", "id": "TPC8EAydIjy" }, { "level": 5, "name": "ECZS - Djuma ", "id": "cNrq2eXChNy" }, { "level": 5, "name": "ECZS Feshi", "id": "n0QDLubh6UW" }, { "level": 5, "name": "ECZS - Gemena", "id": "xnd05IE3j9k" }, { "level": 5, "name": "ECZS - Gungu ", "id": "WRuHcv5ZHda" }, { "level": 5, "name": "ECZS - Iboko", "id": "DMlljOIVh62" }, { "level": 5, "name": "ECZS - Idiofa ", "id": "fy6E5v6miBE" }, { "level": 5, "name": "ECZS - Ingende", "id": "i5GQe8ouKqr" }, { "level": 5, "name": "ECZS - Inongo ", "id": "je4uNoYitYi" }, { "level": 5, "name": "ECZS - Ipamu ", "id": "dWmkDS8qUuY" }, { "level": 5, "name": "ECZS - Irebu", "id": "ZjaPFHOUQ3v" }, { "level": 5, "name": "ECZS - Kabambare ", "id": "SyV8bylUy6F" }, { "level": 5, "name": "ECZS - Kabondo", "id": "wR0mAjxG9wQ" }, { "level": 5, "name": "ECZS - Kabongo", "id": "X3WIi9P967X" }, { "level": 5, "name": "ECZS - Kafakumba", "id": "wg2jLelJsXm" }] }